{
	"interactionModel": {
		"languageModel": {
			"invocationName": "wiki battles",
			"intents": [
				{
					"name": "AMAZON.FallbackIntent",
					"samples": []
				},
				{
					"name": "AMAZON.CancelIntent",
					"samples": []
				},
				{
					"name": "AMAZON.HelpIntent",
					"samples": []
				},
				{
					"name": "AMAZON.StopIntent",
					"samples": []
				},
				{
					"name": "ChooseFighter",
					"slots": [
						{
							"name": "fighterName",
							"type": "AMAZON.SearchQuery"
						},
						{
							"name": "fighterNameA",
							"type": "HistoricalName"
						},
						{
							"name": "fighterNameB",
							"type": "HistoricalName"
						}
					],
					"samples": [
						"{fighterNameA} versus {fighterNameB}",
						"Who would win in a fight between {fighterNameA} or {fighterNameB}",
						"I choose {fighterNameA} versus {fighterNameB}",
						"I choose {fighterNameA} and {fighterNameB}",
						"Who would win between {fighterNameA} and {fighterNameB}",
						"Who would win {fighterNameA} or {fighterNameB}",
						"{fighterNameA} and {fighterNameB}",
						"Who would win in a fight {fighterNameA} or {fighterNameB}",
						"I want {fighterName}",
						"Put {fighterName} in the ring",
						"Add {fighterName} to the fight",
						"How about {fighterName}",
						"Add {fighterName}",
						"I choose you {fighterName}",
						"I choose {fighterName}"
					]
				},
				{
					"name": "PlaceBet",
					"slots": [
						{
							"name": "betFighter",
							"type": "HistoricalName",
							"samples": [
								"I said {betFighter}",
								"{betFighter}",
								"Place it on {betFighter}"
							]
						},
						{
							"name": "betAmount",
							"type": "AMAZON.NUMBER",
							"samples": [
								"I said {betAmount}",
								"I bet {betAmount}",
								"{betAmount}"
							]
						}
					],
					"samples": [
						"{betAmount} cents on {betFighter}",
						"{betAmount} bucks on {betFighter}",
						"{betAmount} dollars on {betFighter}",
						"I bet {betAmount} bucks on {betFighter}",
						"I bet {betAmount} dollars on {betFighter}",
						"I put {betAmount} on {betFighter}",
						"{betAmount} on {betFighter}",
						"I bet {betAmount} on {betFighter}",
						"Bet {betAmount}",
						"I bet {betAmount}"
					]
				},
				{
					"name": "AMAZON.NoIntent",
					"samples": []
				},
				{
					"name": "NoBet",
					"slots": [],
					"samples": [
						"No more",
						"No more bet",
						"No more bets",
						"no bets thanks",
						"no bets for me",
						"no bets",
						"pass",
						"I'll pass",
						"I pass",
						"No bet for me",
						"No bet"
					]
				},
				{
					"name": "Cheer",
					"slots": [
						{
							"name": "cheerTarget",
							"type": "AMAZON.SearchQuery"
						}
					],
					"samples": [
						"Go {cheerTarget}",
						"I cheer for {cheerTarget}",
						"Yeah",
						"Woooooo",
						"cheer",
						"I cheer"
					]
				},
				{
					"name": "Boo",
					"slots": [
						{
							"name": "BooTarget",
							"type": "AMAZON.SearchQuery"
						}
					],
					"samples": [
						"Booo {BooTarget}",
						"You suck",
						"You suck {BooTarget}",
						"Booooo",
						"Boo",
						"Booo"
					]
				},
				{
					"name": "AMAZON.StartOverIntent",
					"samples": [
						"Start the fight over",
						"Restart the fight",
						"New fight",
						"Start over"
					]
				},
				{
					"name": "AMAZON.RepeatIntent",
					"samples": ["Say that again", "What was that", "Repeat that"]
				}
			],
			"types": [
				{
					"name": "HistoricalName",
					"values": [
						{
							"name": {
								"value": "Ian McKellen"
							}
						},
						{
							"name": {
								"value": "Tom Clancy"
							}
						},
						{
							"name": {
								"value": "Charles Darwin",
								"synonyms": ["Darwin"]
							}
						},
						{
							"name": {
								"value": "Aristotle"
							}
						},
						{
							"name": {
								"value": "Plato"
							}
						},
						{
							"name": {
								"value": "Alexander Hamilton",
								"synonyms": ["Hamilton"]
							}
						},
						{
							"name": {
								"value": "Charles Baudelaire"
							}
						},
						{
							"name": {
								"value": "Napolean"
							}
						},
						{
							"name": {
								"value": "Mahatma Gandhi",
								"synonyms": ["Gandhi"]
							}
						},
						{
							"name": {
								"value": "Dwight D. Eisenhower",
								"synonyms": ["Eisenhower", "Dwight Eisenhower"]
							}
						},
						{
							"name": {
								"value": "General Paton"
							}
						},
						{
							"name": {
								"value": "The Desert Fox"
							}
						},
						{
							"name": {
								"value": "Erwin Rommel",
								"synonyms": ["Rommel"]
							}
						},
						{
							"name": {
								"value": "Ivan the Terrible"
							}
						},
						{
							"name": {
								"value": "Emperer Hirohito",
								"synonyms": ["Hirohito"]
							}
						},
						{
							"name": {
								"value": "Miley Cyrus"
							}
						},
						{
							"name": {
								"value": "Patrick Stewart"
							}
						},
						{
							"name": {
								"value": "Barack Obama",
								"synonyms": ["Obama"]
							}
						},
						{
							"name": {
								"value": "Donald Trump",
								"synonyms": ["President Trump", "Trump"]
							}
						},
						{
							"name": {
								"value": "JK Rowling"
							}
						},
						{
							"name": {
								"value": "Pablo Picasso",
								"synonyms": ["Picasso"]
							}
						},
						{
							"name": {
								"value": "Cyrus the Great"
							}
						},
						{
							"name": {
								"value": "Winston Churchill",
								"synonyms": ["Churchill"]
							}
						},
						{
							"name": {
								"value": "Margaret Thatcher",
								"synonyms": ["Thatcher"]
							}
						},
						{
							"name": {
								"value": "Abraham Lincoln",
								"synonyms": ["Lincoln"]
							}
						},
						{
							"name": {
								"value": "Adolf Hitler",
								"synonyms": ["Hitler"]
							}
						},
						{
							"name": {
								"value": "Alexander the Great"
							}
						},
						{
							"name": {
								"value": "Martha Stewart"
							}
						},
						{
							"name": {
								"value": "The Unibomber"
							}
						},
						{
							"name": {
								"value": "Unibomber"
							}
						},
						{
							"name": {
								"value": "Genghis Khan"
							}
						},
						{
							"name": {
								"value": "George Washington"
							}
						}
					]
				},
				{
					"name": "NothingSynonym",
					"values": [
						{
							"name": {
								"value": "Nah"
							}
						},
						{
							"name": {
								"value": "None"
							}
						},
						{
							"name": {
								"value": "Nothing"
							}
						},
						{
							"name": {
								"value": "No"
							}
						}
					]
				}
			]
		},
		"dialog": {
			"intents": [
				{
					"name": "ChooseFighter",
					"confirmationRequired": false,
					"prompts": {},
					"slots": [
						{
							"name": "fighterName",
							"type": "AMAZON.SearchQuery",
							"confirmationRequired": false,
							"elicitationRequired": false,
							"prompts": {}
						},
						{
							"name": "fighterNameA",
							"type": "HistoricalName",
							"confirmationRequired": false,
							"elicitationRequired": false,
							"prompts": {}
						},
						{
							"name": "fighterNameB",
							"type": "HistoricalName",
							"confirmationRequired": false,
							"elicitationRequired": false,
							"prompts": {}
						}
					]
				},
				{
					"name": "PlaceBet",
					"confirmationRequired": false,
					"prompts": {},
					"slots": [
						{
							"name": "betFighter",
							"type": "HistoricalName",
							"confirmationRequired": false,
							"elicitationRequired": true,
							"prompts": {
								"elicitation": "Elicit.Slot.903352631239.1358970915866"
							}
						},
						{
							"name": "betAmount",
							"type": "AMAZON.NUMBER",
							"confirmationRequired": false,
							"elicitationRequired": true,
							"prompts": {
								"elicitation": "Elicit.Slot.1118800799715.93089989084"
							}
						}
					]
				}
			]
		},
		"prompts": [
			{
				"id": "Elicit.Slot.1115234959674.315324988292",
				"variations": [
					{
						"type": "PlainText",
						"value": "I need the name of a historical figure"
					}
				]
			},
			{
				"id": "Elicit.Slot.1118800799715.93089989084",
				"variations": [
					{
						"type": "PlainText",
						"value": "How much is the bet?"
					}
				]
			},
			{
				"id": "Elicit.Slot.903352631239.1358970915866",
				"variations": [
					{
						"type": "PlainText",
						"value": "Which fighter should I place the bet on?"
					}
				]
			}
		]
	}
}
